<?xml version="1.0" encoding="UTF-8" standalone="no"?>
<!-- Created with Inkscape (http://www.inkscape.org/) -->

<svg
   version="1.1"
   width="14"
   height="14"
   sodipodi:docname="bus_stop.svg"
   inkscape:version="1.3.2 (091e20ef0f, 2023-11-25, custom)"
   id="svg1"
   xmlns:inkscape="http://www.inkscape.org/namespaces/inkscape"
   xmlns:sodipodi="http://sodipodi.sourceforge.net/DTD/sodipodi-0.dtd"
   xmlns="http://www.w3.org/2000/svg"
   xmlns:svg="http://www.w3.org/2000/svg"
   xmlns:rdf="http://www.w3.org/1999/02/22-rdf-syntax-ns#"
   xmlns:cc="http://creativecommons.org/ns#"
   xmlns:dc="http://purl.org/dc/elements/1.1/">
  <sodipodi:namedview
     id="namedview1"
     pagecolor="#ffffff"
     bordercolor="#000000"
     borderopacity="0.25"
     inkscape:showpageshadow="2"
     inkscape:pageopacity="0.0"
     inkscape:pagecheckerboard="0"
     inkscape:deskcolor="#d1d1d1"
     inkscape:zoom="26.4"
     inkscape:cx="7.0833333"
     inkscape:cy="7.3106061"
     inkscape:window-width="949"
     inkscape:window-height="1041"
     inkscape:window-x="962"
     inkscape:window-y="30"
     inkscape:window-maximized="1"
     inkscape:current-layer="svg1" />
  <metadata
     id="metadata9">
    <rdf:RDF>
      <cc:Work
         rdf:about="">
        <dc:format>image/svg+xml</dc:format>
        <dc:type
           rdf:resource="http://purl.org/dc/dcmitype/StillImage" />
      </cc:Work>
    </rdf:RDF>
  </metadata>
  <defs
     id="defs7" />
  <rect
     width="10"
     height="10"
     x="2"
     y="2"
     id="canvas"
     style="visibility:hidden;fill:none;stroke:none" />
  <path
     d="M 2.8,0 1.4,1.4 v 11.2 h 0.91875 c 0,0 0.1416085,1.4 1.13785,1.4 C 4.4213813,14 4.55,12.6 4.55,12.6 h 4.9 c 0,0 0.1600789,1.4 1.0934,1.4 1.143056,0 1.13785,-1.4 1.13785,-1.4 H 12.6 V 1.4 L 11.2,0 Z M 4.2,1.4 H 9.8 V 2.8 H 4.2 Z M 2.8,4.2 h 8.4 V 8.4 H 2.8 Z m 0,5.6 h 1.4 v 1.4 H 2.8 Z m 7,0 h 1.4 v 1.4 H 9.8 Z"
     id="bus-stop"
     style="fill:#ffffff;fill-opacity:1;stroke:none;stroke-width:1.4" />
</svg>
