<?xml version="1.0" encoding="UTF-8" standalone="no"?>
<!-- Generator: Adobe Illustrator 28.3.0, SVG Export Plug-In . SVG Version: 6.00 Build 0)  -->

<svg
   version="1.1"
   id="svg2"
   x="0px"
   y="0px"
   viewBox="0 0 16 16"
   style="enable-background:new 0 0 16 16;"
   xml:space="preserve"
   sodipodi:docname="pointeur-BM.svg"
   inkscape:version="1.3.2 (091e20ef0f, 2023-11-25, custom)"
   xmlns:inkscape="http://www.inkscape.org/namespaces/inkscape"
   xmlns:sodipodi="http://sodipodi.sourceforge.net/DTD/sodipodi-0.dtd"
   xmlns="http://www.w3.org/2000/svg"
   xmlns:svg="http://www.w3.org/2000/svg"><defs
   id="defs2" /><sodipodi:namedview
   id="namedview2"
   pagecolor="#ffffff"
   bordercolor="#000000"
   borderopacity="0.25"
   inkscape:showpageshadow="2"
   inkscape:pageopacity="0.0"
   inkscape:pagecheckerboard="0"
   inkscape:deskcolor="#d1d1d1"
   inkscape:zoom="14.75"
   inkscape:cx="8"
   inkscape:cy="8"
   inkscape:window-width="949"
   inkscape:window-height="1041"
   inkscape:window-x="962"
   inkscape:window-y="30"
   inkscape:window-maximized="1"
   inkscape:current-layer="svg2" />
<style
   type="text/css"
   id="style1">
	.st0{display:none;fill:none;}
	.st1{fill:#004C5D;}
	.st2{fill:#FFFFFF;}
</style>
<rect
   id="canvas"
   y="0"
   class="st0"
   width="16"
   height="16" />
<g
   id="g1"
   style="fill:#000000;fill-opacity:1">
	<path
   class="st1"
   d="M8,11c-1.7,0-3-1.3-3-3c0-1.7,1.3-3,3-3c1.7,0,3,1.3,3,3C11,9.7,9.7,11,8,11z M8,5.8c-1.2,0-2.2,1-2.2,2.2   c0,1.2,1,2.2,2.2,2.2c1.2,0,2.2-1,2.2-2.2C10.3,6.8,9.3,5.8,8,5.8z"
   id="path1"
   style="fill:#000000;fill-opacity:1" />
</g>

</svg>
